\relax 
\providecommand\hyper@newdestlabel[2]{}
\providecommand\HyperFirstAtBeginDocument{\AtBeginDocument}
\HyperFirstAtBeginDocument{\ifx\hyper@anchor\@undefined
\global\let\oldcontentsline\contentsline
\gdef\contentsline#1#2#3#4{\oldcontentsline{#1}{#2}{#3}}
\global\let\oldnewlabel\newlabel
\gdef\newlabel#1#2{\newlabelxx{#1}#2}
\gdef\newlabelxx#1#2#3#4#5#6{\oldnewlabel{#1}{{#2}{#3}}}
\AtEndDocument{\ifx\hyper@anchor\@undefined
\let\contentsline\oldcontentsline
\let\newlabel\oldnewlabel
\fi}
\fi}
\global\let\hyper@last\relax 
\gdef\HyperFirstAtBeginDocument#1{#1}
\providecommand\HyField@AuxAddToFields[1]{}
\providecommand\HyField@AuxAddToCoFields[2]{}
\@writefile{toc}{\beamer@endinputifotherversion {3.36pt}}
\@writefile{nav}{\beamer@endinputifotherversion {3.36pt}}
\select@language{italian}
\@writefile{toc}{\select@language{italian}}
\@writefile{lof}{\select@language{italian}}
\@writefile{lot}{\select@language{italian}}
\select@language{italian}
\@writefile{toc}{\select@language{italian}}
\@writefile{lof}{\select@language{italian}}
\@writefile{lot}{\select@language{italian}}
\@writefile{nav}{\headcommand {\slideentry {0}{0}{1}{1/1}{}{0}}}
\@writefile{nav}{\headcommand {\beamer@framepages {1}{1}}}
\@writefile{toc}{\beamer@sectionintoc {1}{Introduzione}{2}{0}{1}}
\@writefile{nav}{\headcommand {\sectionentry {1}{Introduzione}{2}{Introduzione}{0}}}
\@writefile{nav}{\headcommand {\beamer@sectionpages {1}{1}}}
\@writefile{nav}{\headcommand {\beamer@subsectionpages {1}{1}}}
\@writefile{nav}{\headcommand {\slideentry {1}{0}{1}{2/2}{}{0}}}
\@writefile{nav}{\headcommand {\beamer@framepages {2}{2}}}
\@writefile{nav}{\headcommand {\slideentry {1}{0}{2}{3/6}{}{0}}}
\@writefile{nav}{\headcommand {\beamer@framepages {3}{6}}}
\providecommand*\caption@xref[2]{\@setref\relax\@undefined{#1}}
\newlabel{fig:preprocess_raw_1}{{1a}{7}{\relax }{Doc-Start}{}}
\@writefile{snm}{\beamer@slide {fig:preprocess_raw_1}{7}}
\newlabel{sub@fig:preprocess_raw_1}{{a}{7}{\relax }{Doc-Start}{}}
\@writefile{snm}{\beamer@slide {sub@fig:preprocess_raw_1}{7}}
\newlabel{fig:kumar_et_al_2009_4_1}{{1b}{7}{\relax }{Doc-Start}{}}
\@writefile{snm}{\beamer@slide {fig:kumar_et_al_2009_4_1}{7}}
\newlabel{sub@fig:kumar_et_al_2009_4_1}{{b}{7}{\relax }{Doc-Start}{}}
\@writefile{snm}{\beamer@slide {sub@fig:kumar_et_al_2009_4_1}{7}}
\@writefile{nav}{\headcommand {\slideentry {1}{0}{3}{7/9}{}{0}}}
\@writefile{nav}{\headcommand {\beamer@framepages {7}{9}}}
\@writefile{toc}{\beamer@sectionintoc {2}{Problematiche}{10}{0}{2}}
\@writefile{nav}{\headcommand {\sectionentry {2}{Problematiche}{10}{Problematiche}{0}}}
\@writefile{nav}{\headcommand {\beamer@sectionpages {2}{9}}}
\@writefile{nav}{\headcommand {\beamer@subsectionpages {2}{9}}}
\newlabel{fig:acquisition_process_a}{{2a}{10}{\relax }{Doc-Start}{}}
\@writefile{snm}{\beamer@slide {fig:acquisition_process_a}{10}}
\newlabel{sub@fig:acquisition_process_a}{{a}{10}{\relax }{Doc-Start}{}}
\@writefile{snm}{\beamer@slide {sub@fig:acquisition_process_a}{10}}
\newlabel{fig:acquisition_process_b}{{2b}{10}{\relax }{Doc-Start}{}}
\@writefile{snm}{\beamer@slide {fig:acquisition_process_b}{10}}
\newlabel{sub@fig:acquisition_process_b}{{b}{10}{\relax }{Doc-Start}{}}
\@writefile{snm}{\beamer@slide {sub@fig:acquisition_process_b}{10}}
\newlabel{fig:acquisition_process_c}{{2c}{10}{\relax }{Doc-Start}{}}
\@writefile{snm}{\beamer@slide {fig:acquisition_process_c}{10}}
\newlabel{sub@fig:acquisition_process_c}{{c}{10}{\relax }{Doc-Start}{}}
\@writefile{snm}{\beamer@slide {sub@fig:acquisition_process_c}{10}}
\newlabel{fig:acquisition_process_d}{{2d}{10}{\relax }{Doc-Start}{}}
\@writefile{snm}{\beamer@slide {fig:acquisition_process_d}{10}}
\newlabel{sub@fig:acquisition_process_d}{{d}{10}{\relax }{Doc-Start}{}}
\@writefile{snm}{\beamer@slide {sub@fig:acquisition_process_d}{10}}
\newlabel{fig:acquisition_process_e}{{2e}{10}{\relax }{Doc-Start}{}}
\@writefile{snm}{\beamer@slide {fig:acquisition_process_e}{10}}
\newlabel{sub@fig:acquisition_process_e}{{e}{10}{\relax }{Doc-Start}{}}
\@writefile{snm}{\beamer@slide {sub@fig:acquisition_process_e}{10}}
\@writefile{nav}{\headcommand {\slideentry {2}{0}{1}{10/11}{}{0}}}
\@writefile{nav}{\headcommand {\beamer@framepages {10}{11}}}
\@writefile{toc}{\beamer@sectionintoc {3}{Sensore e acquisizione}{12}{0}{3}}
\@writefile{nav}{\headcommand {\sectionentry {3}{Sensore e acquisizione}{12}{Sensore e acquisizione}{0}}}
\@writefile{nav}{\headcommand {\beamer@sectionpages {10}{11}}}
\@writefile{nav}{\headcommand {\beamer@subsectionpages {10}{11}}}
\@writefile{nav}{\headcommand {\slideentry {3}{0}{1}{12/12}{}{0}}}
\@writefile{nav}{\headcommand {\beamer@framepages {12}{12}}}
\newlabel{fig:preprocess_raw}{{4a}{13}{\relax }{Doc-Start}{}}
\@writefile{snm}{\beamer@slide {fig:preprocess_raw}{13}}
\newlabel{sub@fig:preprocess_raw}{{a}{13}{\relax }{Doc-Start}{}}
\@writefile{snm}{\beamer@slide {sub@fig:preprocess_raw}{13}}
\newlabel{fig:preprocess_flaws}{{4b}{13}{\relax }{Doc-Start}{}}
\@writefile{snm}{\beamer@slide {fig:preprocess_flaws}{13}}
\newlabel{sub@fig:preprocess_flaws}{{b}{13}{\relax }{Doc-Start}{}}
\@writefile{snm}{\beamer@slide {sub@fig:preprocess_flaws}{13}}
\@writefile{nav}{\headcommand {\slideentry {3}{0}{2}{13/13}{}{0}}}
\@writefile{nav}{\headcommand {\beamer@framepages {13}{13}}}
\@writefile{nav}{\headcommand {\slideentry {3}{0}{3}{14/14}{}{0}}}
\@writefile{nav}{\headcommand {\beamer@framepages {14}{14}}}
\@writefile{toc}{\beamer@sectionintoc {4}{Preprocessing}{15}{0}{4}}
\@writefile{nav}{\headcommand {\sectionentry {4}{Preprocessing}{15}{Preprocessing}{0}}}
\@writefile{nav}{\headcommand {\beamer@sectionpages {12}{14}}}
\@writefile{nav}{\headcommand {\beamer@subsectionpages {12}{14}}}
\@writefile{nav}{\headcommand {\slideentry {4}{0}{1}{15/18}{}{0}}}
\@writefile{nav}{\headcommand {\beamer@framepages {15}{18}}}
\@writefile{nav}{\headcommand {\slideentry {4}{0}{2}{19/23}{}{0}}}
\@writefile{nav}{\headcommand {\beamer@framepages {19}{23}}}
\@writefile{toc}{\beamer@sectionintoc {5}{Estrazione punti salienti}{24}{0}{5}}
\@writefile{nav}{\headcommand {\sectionentry {5}{Estrazione punti salienti}{24}{Estrazione punti salienti}{0}}}
\@writefile{nav}{\headcommand {\beamer@sectionpages {15}{23}}}
\@writefile{nav}{\headcommand {\beamer@subsectionpages {15}{23}}}
\@writefile{nav}{\headcommand {\slideentry {5}{0}{1}{24/29}{}{0}}}
\@writefile{nav}{\headcommand {\beamer@framepages {24}{29}}}
\@writefile{toc}{\beamer@sectionintoc {6}{Feature extraction}{30}{0}{6}}
\@writefile{nav}{\headcommand {\sectionentry {6}{Feature extraction}{30}{Feature extraction}{0}}}
\@writefile{nav}{\headcommand {\beamer@sectionpages {24}{29}}}
\@writefile{nav}{\headcommand {\beamer@subsectionpages {24}{29}}}
\newlabel{fig:geodesic_1}{{5a}{30}{\relax }{Doc-Start}{}}
\@writefile{snm}{\beamer@slide {fig:geodesic_1}{30}}
\newlabel{sub@fig:geodesic_1}{{a}{30}{\relax }{Doc-Start}{}}
\@writefile{snm}{\beamer@slide {sub@fig:geodesic_1}{30}}
\newlabel{fig:geodesic_feature_1}{{5b}{30}{\relax }{Doc-Start}{}}
\@writefile{snm}{\beamer@slide {fig:geodesic_feature_1}{30}}
\newlabel{sub@fig:geodesic_feature_1}{{b}{30}{\relax }{Doc-Start}{}}
\@writefile{snm}{\beamer@slide {sub@fig:geodesic_feature_1}{30}}
\@writefile{nav}{\headcommand {\slideentry {6}{0}{1}{30/30}{}{0}}}
\@writefile{nav}{\headcommand {\beamer@framepages {30}{30}}}
\@writefile{nav}{\headcommand {\slideentry {6}{0}{2}{31/31}{}{0}}}
\@writefile{nav}{\headcommand {\beamer@framepages {31}{31}}}
\@writefile{nav}{\headcommand {\slideentry {6}{0}{3}{32/35}{}{0}}}
\@writefile{nav}{\headcommand {\beamer@framepages {32}{35}}}
\@writefile{nav}{\headcommand {\slideentry {6}{0}{4}{36/36}{}{0}}}
\@writefile{nav}{\headcommand {\beamer@framepages {36}{36}}}
\@writefile{toc}{\beamer@sectionintoc {7}{Conclusioni ed estensioni}{37}{0}{7}}
\@writefile{nav}{\headcommand {\sectionentry {7}{Conclusioni ed estensioni}{37}{Conclusioni ed estensioni}{0}}}
\@writefile{nav}{\headcommand {\beamer@sectionpages {30}{36}}}
\@writefile{nav}{\headcommand {\beamer@subsectionpages {30}{36}}}
\@writefile{nav}{\headcommand {\slideentry {7}{0}{1}{37/40}{}{0}}}
\@writefile{nav}{\headcommand {\beamer@framepages {37}{40}}}
\@writefile{nav}{\headcommand {\slideentry {7}{0}{2}{41/41}{}{0}}}
\@writefile{nav}{\headcommand {\beamer@framepages {41}{41}}}
\@writefile{nav}{\headcommand {\beamer@partpages {1}{41}}}
\@writefile{nav}{\headcommand {\beamer@subsectionpages {37}{41}}}
\@writefile{nav}{\headcommand {\beamer@sectionpages {37}{41}}}
\@writefile{nav}{\headcommand {\beamer@documentpages {41}}}
\@writefile{nav}{\headcommand {\def \inserttotalframenumber {17}}}
