\relax 
\select@language{italian}
\@writefile{toc}{\select@language{italian}}
\@writefile{lof}{\select@language{italian}}
\@writefile{lot}{\select@language{italian}}
\select@language{italian}
\@writefile{toc}{\select@language{italian}}
\@writefile{lof}{\select@language{italian}}
\@writefile{lot}{\select@language{italian}}
\@writefile{toc}{\contentsline {chapter}{\numberline {1}Introduzione}{5}}
\@writefile{lof}{\addvspace {10\p@ }}
\@writefile{lot}{\addvspace {10\p@ }}
\citation{identimat_patent}
\citation{hand_based_survey}
\@writefile{toc}{\contentsline {chapter}{\numberline {2}Lavoro Correlato}{7}}
\@writefile{lof}{\addvspace {10\p@ }}
\@writefile{lot}{\addvspace {10\p@ }}
\newlabel{cap:lavoro_correlato}{{2}{7}}
\citation{hand_based_survey}
\citation{ernst}
\citation{identimat_patent}
\citation{jain_et_al}
\citation{jain_et_al}
\citation{jain_et_al}
\citation{Bulatov2004}
\@writefile{toc}{\contentsline {section}{\numberline {2.1}Features geometriche della mano}{8}}
\citation{Bulatov2004}
\citation{Bulatov2004}
\citation{jain_et_al}
\@writefile{lof}{\contentsline {figure}{\numberline {2.1}{\ignorespaces Sostegno e \textit  {features} estratte utilizzando l'approccio descritto in \cite  {jain_et_al}\relax }}{9}}
\providecommand*\caption@xref[2]{\@setref\relax\@undefined{#1}}
\newlabel{fig:jain_et_al}{{2.1}{9}}
\@writefile{lof}{\contentsline {figure}{\numberline {2.2}{\ignorespaces \textit  {Features} estratte utilizzando l'approccio descritto in \cite  {Bulatov2004}\relax }}{9}}
\newlabel{fig:bulatov_et_al}{{2.2}{9}}
\citation{jain_et_al_2}
\citation{jain_et_al_2}
\citation{jain_et_al_2}
\citation{yoruk_et_al}
\@writefile{toc}{\contentsline {section}{\numberline {2.2}Features relative alla forma della mano}{10}}
\newlabel{sez:features_shape_hand}{{2.2}{10}}
\@writefile{lof}{\contentsline {figure}{\numberline {2.3}{\ignorespaces Estrazione della \textit  {silhouette} della mano come descritto in \cite  {jain_et_al_2}\relax }}{10}}
\newlabel{fig:jain_et_al_2}{{2.3}{10}}
\citation{yoruk_et_al}
\citation{yoruk_et_al}
\@writefile{lof}{\contentsline {figure}{\numberline {2.4}{\ignorespaces Normalizzazione della \textit  {silhouette} della mano \cite  {yoruk_et_al}\relax }}{11}}
\newlabel{fig:yoruk_et_al}{{2.4}{11}}
\@writefile{toc}{\contentsline {section}{\numberline {2.3}Features relative al palmo della mano}{11}}
\newlabel{Features relative al palmo della mano}{{2.3}{11}}
\citation{Zhang_et_al}
\citation{Wang_et_al}
\newlabel{fig:palm_lines_1}{{2.5a}{12}}
\newlabel{sub@fig:palm_lines_1}{{a}{12}}
\newlabel{fig:palm_lines_2}{{2.5b}{12}}
\newlabel{sub@fig:palm_lines_2}{{b}{12}}
\newlabel{fig:palm_lines_3}{{2.5c}{12}}
\newlabel{sub@fig:palm_lines_3}{{c}{12}}
\@writefile{lof}{\contentsline {figure}{\numberline {2.5}{\ignorespaces Le tre categorie di linee presenti nel palmo: le linee principali (\ref  {fig:palm_lines_1}), le rughe (\ref  {fig:palm_lines_2}) e le creste (\ref  {fig:palm_lines_3})\relax }}{12}}
\newlabel{fig:palm_lines}{{2.5}{12}}
\citation{Zhang_et_al}
\citation{Wang_et_al}
\citation{Zhang_et_al}
\citation{Wang_et_al}
\citation{Kumar_et_al_2009}
\newlabel{fig:zhang_et_al}{{2.6a}{13}}
\newlabel{sub@fig:zhang_et_al}{{a}{13}}
\newlabel{fig:wang_et_al}{{2.6b}{13}}
\newlabel{sub@fig:wang_et_al}{{b}{13}}
\@writefile{lof}{\contentsline {figure}{\numberline {2.6}{\ignorespaces Esempi di estrazione diretta delle line della mano, \ref  {fig:zhang_et_al} \IeC {\`e} relativo a \cite  {Zhang_et_al}, \ref  {fig:wang_et_al} a \cite  {Wang_et_al}, \relax }}{13}}
\newlabel{fig:zhang_wang}{{2.6}{13}}
\@writefile{toc}{\contentsline {section}{\numberline {2.4}Features 3D del palmo e delle dita}{13}}
\newlabel{sec:3d-rel-work}{{2.4}{13}}
\citation{Kumar_et_al_2009}
\citation{Kumar_et_al_2009}
\newlabel{fig:kumar_et_al_2009_1_1}{{2.7a}{14}}
\newlabel{sub@fig:kumar_et_al_2009_1_1}{{a}{14}}
\newlabel{fig:kumar_et_al_2009_1_2}{{2.7b}{14}}
\newlabel{sub@fig:kumar_et_al_2009_1_2}{{b}{14}}
\newlabel{fig:kumar_et_al_2009_1_3}{{2.7c}{14}}
\newlabel{sub@fig:kumar_et_al_2009_1_3}{{c}{14}}
\newlabel{fig:kumar_et_al_2009_1_4}{{2.7d}{14}}
\newlabel{sub@fig:kumar_et_al_2009_1_4}{{d}{14}}
\newlabel{fig:kumar_et_al_2009_1_5}{{2.7e}{14}}
\newlabel{sub@fig:kumar_et_al_2009_1_5}{{e}{14}}
\@writefile{lof}{\contentsline {figure}{\numberline {2.7}{\ignorespaces Algoritmo di estrazione delle dita descritto in \cite  {Kumar_et_al_2009}. \ref  {fig:kumar_et_al_2009_1_1} l'immagine originaria, \ref  {fig:kumar_et_al_2009_1_2} maschera ottenuta dopo il \textit  {thresholding}, \ref  {fig:kumar_et_al_2009_1_3} l'identificazione dei \textit  {fingertip} e dei \textit  {finger valley}, \ref  {fig:kumar_et_al_2009_1_4} l'orientazione delle dita, \ref  {fig:kumar_et_al_2009_1_5} il \textit  {cropping} delle dita.\relax }}{14}}
\newlabel{fig:kumar_et_al_2009_1}{{2.7}{14}}
\citation{Kumar_et_al_2009}
\citation{Kumar_et_al_2009}
\citation{Kumar_et_al_2010}
\newlabel{fig:kumar_et_al_2009_2}{{2.8a}{15}}
\newlabel{sub@fig:kumar_et_al_2009_2}{{a}{15}}
\newlabel{fig:kumar_et_al_2009_3}{{2.8b}{15}}
\newlabel{sub@fig:kumar_et_al_2009_3}{{b}{15}}
\@writefile{lof}{\contentsline {figure}{\numberline {2.8}{\ignorespaces Modello di acquizione e esempio di dati di \cite  {Kumar_et_al_2009}\relax }}{15}}
\newlabel{fig:kumar_et_al_2009}{{2.8}{15}}
\citation{Kumar_et_al_2010}
\citation{Kumar_et_al_2010}
\citation{Kumar_et_al_2011}
\citation{Kumar_et_al_2009}
\citation{Kumar_et_al_2010}
\citation{Kumar_et_al_2009}
\citation{Kumar_et_al_2010}
\newlabel{fig:kumar_et_al_2010_1}{{2.9a}{16}}
\newlabel{sub@fig:kumar_et_al_2010_1}{{a}{16}}
\newlabel{fig:kumar_et_al_2010_2}{{2.9b}{16}}
\newlabel{sub@fig:kumar_et_al_2010_2}{{b}{16}}
\@writefile{lof}{\contentsline {figure}{\numberline {2.9}{\ignorespaces Modello di acquizione e esempio di dati di \cite  {Kumar_et_al_2010}\relax }}{16}}
\newlabel{fig:kumar_et_al_2010}{{2.9}{16}}
\citation{Kumar_et_al_2011}
\citation{Kumar_et_al_2011}
\citation{Kumar_et_al_2011}
\newlabel{fig:kumar_et_al_2011_1_1}{{2.10a}{17}}
\newlabel{sub@fig:kumar_et_al_2011_1_1}{{a}{17}}
\newlabel{fig:kumar_et_al_2011_1_2}{{2.10b}{17}}
\newlabel{sub@fig:kumar_et_al_2011_1_2}{{b}{17}}
\newlabel{fig:kumar_et_al_2011_1_3}{{2.10c}{17}}
\newlabel{sub@fig:kumar_et_al_2011_1_3}{{c}{17}}
\newlabel{fig:kumar_et_al_2011_2}{{2.10d}{17}}
\newlabel{sub@fig:kumar_et_al_2011_2}{{d}{17}}
\newlabel{fig:kumar_et_al_2011_3}{{2.10e}{17}}
\newlabel{sub@fig:kumar_et_al_2011_3}{{e}{17}}
\@writefile{lof}{\contentsline {figure}{\numberline {2.10}{\ignorespaces Processo di rotazione della mano in \cite  {Kumar_et_al_2011}, \ref  {fig:kumar_et_al_2011_1_1} immagine originaria, \ref  {fig:kumar_et_al_2011_1_2} binarizzazione, \ref  {fig:kumar_et_al_2011_1_3} \textit  {distance transform} e centro del palmo, \ref  {fig:kumar_et_al_2011_2} rotazione immagine delle intensit\IeC {\`a}, \ref  {fig:kumar_et_al_2011_3} rotazione immagine delle profondit\IeC {\`a}\relax }}{17}}
\newlabel{fig:kumar_et_al_2011}{{2.10}{17}}
\citation{Kumar_et_al_2009}
\citation{Kumar_et_al_2011}
\citation{Kumar_et_al_2010}
\citation{jain_et_al_2}
\citation{jain_et_al}
\citation{yoruk_et_al}
\citation{Zhang_et_al}
\citation{Wang_et_al}
\citation{Kumar_et_al_2009}
\citation{Kumar_et_al_2010}
\@writefile{toc}{\contentsline {section}{\numberline {2.5}Problematiche dell'acquisizione 3D}{18}}
\citation{hand_based_survey}
\@writefile{toc}{\contentsline {chapter}{\numberline {3}Acquisizione dei dati e il sensore Creative Senz3D}{21}}
\@writefile{lof}{\addvspace {10\p@ }}
\@writefile{lot}{\addvspace {10\p@ }}
\@writefile{toc}{\contentsline {section}{\numberline {3.1}Descrizione del processo di acquisizione}{21}}
\newlabel{sez:descrizione_processo_acquizione}{{3.1}{21}}
\citation{yoruk_et_al}
\newlabel{fig:acquisition_process_a}{{3.1a}{23}}
\newlabel{sub@fig:acquisition_process_a}{{a}{23}}
\newlabel{fig:acquisition_process_b}{{3.1b}{23}}
\newlabel{sub@fig:acquisition_process_b}{{b}{23}}
\newlabel{fig:acquisition_process_c}{{3.1c}{23}}
\newlabel{sub@fig:acquisition_process_c}{{c}{23}}
\newlabel{fig:acquisition_process_d}{{3.1d}{23}}
\newlabel{sub@fig:acquisition_process_d}{{d}{23}}
\newlabel{fig:acquisition_process_e}{{3.1e}{23}}
\newlabel{sub@fig:acquisition_process_e}{{e}{23}}
\@writefile{lof}{\contentsline {figure}{\numberline {3.1}{\ignorespaces Esempio di processo di acquisizione: \ref  {fig:acquisition_process_a} mano planare, \ref  {fig:acquisition_process_b} mano rilassata, \ref  {fig:acquisition_process_c} mano planare, \ref  {fig:acquisition_process_d} ipertensione, \ref  {fig:acquisition_process_e} mano planare \relax }}{23}}
\newlabel{fig:acquisition_process}{{3.1}{23}}
\@writefile{toc}{\contentsline {section}{\numberline {3.2}Il dispositivo Creative Senz3D}{24}}
\newlabel{sez:caratteristiche_senz3d}{{3.2}{24}}
\@writefile{lot}{\contentsline {table}{\numberline {3.1}{\ignorespaces Caratteristiche tecniche del sensore di profondit\IeC {\`a} del dispositivo Creative Senz3D\relax }}{24}}
\newlabel{tab:tech_detail_senz3d}{{3.1}{24}}
\citation{ToF-article}
\citation{ToF-book}
\citation{ToF-article}
\citation{ToF-article}
\@writefile{lof}{\contentsline {figure}{\numberline {3.2}{\ignorespaces Il dispositivo Senz3D con i principali componenti in evidenza.\relax }}{25}}
\newlabel{fig:senz3d}{{3.2}{25}}
\@writefile{lof}{\contentsline {figure}{\numberline {3.3}{\ignorespaces Principio di funzionamento di un sensore \textit  {Time-of-Flight}\relax }}{26}}
\newlabel{fig:tof}{{3.3}{26}}
\@writefile{toc}{\contentsline {section}{\numberline {3.3}Il framework Intel\textsuperscript  {\textregistered } Perceptual Computing SDK}{27}}
\newlabel{sez:intel_pcsdk}{{3.3}{27}}
\@writefile{lot}{\contentsline {table}{\numberline {3.2}{\ignorespaces Requisiti di sitema per l'utilizzo del \textit  {framework} Intel\textsuperscript  {\textregistered } Perceptual Computing SDK\relax }}{27}}
\newlabel{tab:tech_req_PCSDK}{{3.2}{27}}
\newlabel{fig:depth_raw}{{3.4a}{29}}
\newlabel{sub@fig:depth_raw}{{a}{29}}
\newlabel{fig:depth_smooth}{{3.4b}{29}}
\newlabel{sub@fig:depth_smooth}{{b}{29}}
\@writefile{lof}{\contentsline {figure}{\numberline {3.4}{\ignorespaces Esempio di mappa di profondit\IeC {\`a} acquisita dal dispositivo, in \ref  {fig:depth_raw} l'immagine \textit  {raw}, in \ref  {fig:depth_smooth} l'immagine \textit  {smooth}\relax }}{29}}
\newlabel{fig:depth_raw_smooth}{{3.4}{29}}
\@writefile{toc}{\contentsline {section}{\numberline {3.4}Tool di acquisizione dei dati}{30}}
\newlabel{sez:tool_acquizione_dati}{{3.4}{30}}
\@writefile{lof}{\contentsline {figure}{\numberline {3.5}{\ignorespaces Il tool di acquisizione dei dati. In alto a sinistra la \textit  {depth map}, in basso l'immagine RGB, in alto destra l'immagine proiettata\relax }}{32}}
\newlabel{fig:tool}{{3.5}{32}}
\newlabel{cod:json}{{3.1}{34}}
\@writefile{lol}{\contentsline {lstlisting}{\numberline {3.1}Frammento di file \textit  {json} esportato dal tool per l'acquisizione dei dati}{34}}
\@writefile{toc}{\contentsline {chapter}{\numberline {4}Preprocessing e rotazione della mano}{35}}
\@writefile{lof}{\addvspace {10\p@ }}
\@writefile{lot}{\addvspace {10\p@ }}
\newlabel{cap:preprocessing}{{4}{35}}
\@writefile{toc}{\contentsline {section}{\numberline {4.1}Filtro bilaterale}{35}}
\newlabel{sez:bilateral_filter}{{4.1}{35}}
\citation{bilateral_filter}
\newlabel{fig:preprocess_raw}{{4.1a}{36}}
\newlabel{sub@fig:preprocess_raw}{{a}{36}}
\newlabel{fig:preprocess_flaws}{{4.1b}{36}}
\newlabel{sub@fig:preprocess_flaws}{{b}{36}}
\@writefile{lof}{\contentsline {figure}{\numberline {4.1}{\ignorespaces Esempio di immagine cos\IeC {\`\i } come viene acquisita dal sensore. In \ref  {fig:preprocess_raw} l'immagine esatta, in \ref  {fig:preprocess_flaws} sono stati evidenziati i difetti dell'immagine\relax }}{36}}
\newlabel{fig:preprocess_1}{{4.1}{36}}
\@writefile{lof}{\contentsline {figure}{\numberline {4.2}{\ignorespaces L'immagine di figura \ref  {fig:preprocess_raw} dopo l'applicazione del filtro mediano e del criterio sul modulo del gradiente\relax }}{38}}
\newlabel{fig:preprocess_bilateral}{{4.2}{38}}
\@writefile{toc}{\contentsline {section}{\numberline {4.2}Conditional Growing}{38}}
\newlabel{sez:conditional_growing}{{4.2}{38}}
\citation{digital_img_processing}
\newlabel{fig:preprocess_eroded}{{4.3a}{40}}
\newlabel{sub@fig:preprocess_eroded}{{a}{40}}
\newlabel{fig:preprocess_conditional_growing}{{4.3b}{40}}
\newlabel{sub@fig:preprocess_conditional_growing}{{b}{40}}
\@writefile{lof}{\contentsline {figure}{\numberline {4.3}{\ignorespaces Esempio di applicazione dell'algoritmo \textit  {conditional growing}: in \ref  {fig:preprocess_eroded} l'immagine \textit  {seed} $f_{seed}$, in \ref  {fig:preprocess_conditional_growing} il risultato raggiunta la condizione di convergenza\relax }}{40}}
\newlabel{fig:preprocess_2}{{4.3}{40}}
\citation{Kumar_et_al_2011}
\citation{Kumar_et_al_2011}
\citation{distance_transform}
\@writefile{toc}{\contentsline {section}{\numberline {4.3}Estrazione del centro del palmo}{41}}
\newlabel{sez:center_palm_extraction}{{4.3}{41}}
\citation{distance_transform}
\citation{distance_transform}
\@writefile{lof}{\contentsline {figure}{\numberline {4.4}{\ignorespaces Esempio dell'applicazione dell'operazione di \textit  {distance trasform}. In giallo, il centro del palmo.\relax }}{43}}
\newlabel{fig:distance_transform}{{4.4}{43}}
\@writefile{toc}{\contentsline {section}{\numberline {4.4}Rotazione della mano}{44}}
\newlabel{sez:hand_rotation}{{4.4}{44}}
\@writefile{lof}{\contentsline {figure}{\numberline {4.5}{\ignorespaces Esempio di stima del piano della mano a partire dai punti del palmo\relax }}{46}}
\newlabel{fig:hand_plane}{{4.5}{46}}
\@writefile{lof}{\contentsline {figure}{\numberline {4.6}{\ignorespaces Esempio di semplice rotazione dei punti della mano\relax }}{48}}
\newlabel{fig:hand_rotated}{{4.6}{48}}
\@writefile{lof}{\contentsline {figure}{\numberline {4.7}{\ignorespaces Esempio di rotazione dei punti della mano, comprensiva di \textit  {hole filling} e \textit  {inverse warping}\relax }}{50}}
\newlabel{fig:hand_rotated_filled}{{4.7}{50}}
\@writefile{toc}{\contentsline {chapter}{\numberline {5}Estrazione dei punti salienti e scelta del miglior frame}{51}}
\@writefile{lof}{\addvspace {10\p@ }}
\@writefile{lot}{\addvspace {10\p@ }}
\newlabel{cap:hand_model}{{5}{51}}
\@writefile{toc}{\contentsline {section}{\numberline {5.1}Identificazione dei \textit  {fingertip} e \textit  {finger valley}}{51}}
\newlabel{sec:hand_model}{{5.1}{51}}
\citation{contour_extraction}
\citation{contour_extraction}
\citation{convex_hull}
\citation{convex_hull}
\citation{convexity_defects_for_fingers}
\citation{convexity_defects_for_fingers}
\@writefile{lof}{\contentsline {figure}{\numberline {5.1}{\ignorespaces Esempio di estrazione del contorno dal profilo della mano.\relax }}{54}}
\newlabel{fig:hand_contour}{{5.1}{54}}
\@writefile{lof}{\contentsline {figure}{\numberline {5.2}{\ignorespaces Esempio di estrazione del \textit  {convex hull} dal profilo della mano.\relax }}{55}}
\newlabel{fig:hand_convex_hull}{{5.2}{55}}
\citation{k_curvature}
\citation{Kumar_k_curvature}
\@writefile{lof}{\contentsline {figure}{\numberline {5.3}{\ignorespaces Esempio di estrazione dei \textit  {convexity defects} a partire dal profilo dalla mano. In giallo, i punti del contorno corrispondenti al difetto (\textit  {i.e.}, aventi distanza massima dal poligono convesso, in blu ed in rosso, gli estremi del difetto.\relax }}{56}}
\newlabel{fig:hand_convexity_defects}{{5.3}{56}}
\citation{k_curvature}
\citation{Kumar_et_al_2009}
\@writefile{toc}{\contentsline {section}{\numberline {5.2}Etichettatura delle dita}{57}}
\newlabel{sec:finger_labeling}{{5.2}{57}}
\@writefile{lof}{\contentsline {figure}{\numberline {5.4}{\ignorespaces Esempio di risultato dell'intero processo di estrazione, in verdei \textit  {finger valley}, in blu i \textit  {fingertip}.\relax }}{58}}
\newlabel{fig:hand_fingertip_valley}{{5.4}{58}}
\@writefile{lof}{\contentsline {figure}{\numberline {5.5}{\ignorespaces Esempio di estrazione di un modello della mano.\relax }}{59}}
\newlabel{fig:hand_model}{{5.5}{59}}
\@writefile{toc}{\contentsline {section}{\numberline {5.3}Criterio per la scelta del miglior \textit  {frame}}{59}}
\newlabel{sec:best_frame}{{5.3}{59}}
\citation{Kumar_et_al_2009}
\citation{Kumar_et_al_2010}
\citation{Kumar_et_al_2011}
\@writefile{toc}{\contentsline {chapter}{\numberline {6}Estrazione delle \textit  {features} e autenticazione}{63}}
\@writefile{lof}{\addvspace {10\p@ }}
\@writefile{lot}{\addvspace {10\p@ }}
\newlabel{cap:features_auth}{{6}{63}}
\@writefile{toc}{\contentsline {section}{\numberline {6.1}Risultati degli algoritmi in letteratura}{63}}
\newlabel{sec:literature_results}{{6.1}{63}}
\citation{Kumar_et_al_2009}
\citation{Kumar_et_al_2009}
\citation{Kumar_et_al_2009}
\@writefile{lof}{\contentsline {figure}{\numberline {6.1}{\ignorespaces Esempio di estrazione delle direzioni della mano, in accordo a \cite  {Kumar_et_al_2009}. In rosso i $K$ punti alla destra del \textit  {fingertip}, in verde i $K$ punti alla sinistra del \textit  {fingertip}, in giallo i valori medi.\relax }}{64}}
\newlabel{fig:finger_direction}{{6.1}{64}}
\citation{PCA}
\citation{Kumar_et_al_2009}
\citation{Kumar_et_al_2009}
\citation{Kumar_et_al_2009}
\citation{Kumar_et_al_2009}
\newlabel{fig:finger_cropped_1}{{6.2a}{65}}
\newlabel{sub@fig:finger_cropped_1}{{a}{65}}
\newlabel{fig:finger_cropped_2}{{6.2b}{65}}
\newlabel{sub@fig:finger_cropped_2}{{b}{65}}
\newlabel{fig:finger_cropped_3}{{6.2c}{65}}
\newlabel{sub@fig:finger_cropped_3}{{c}{65}}
\newlabel{fig:finger_cropped_4}{{6.2d}{65}}
\newlabel{sub@fig:finger_cropped_4}{{d}{65}}
\@writefile{lof}{\contentsline {figure}{\numberline {6.2}{\ignorespaces Risultato delle quattro operazioni di rotazione e \textit  {cropping} sull'immagine di esempio.\relax }}{65}}
\newlabel{fig:finger_cropped}{{6.2}{65}}
\citation{Kumar_et_al_2010}
\newlabel{fig:finger_cropped_3D_1}{{6.3a}{66}}
\newlabel{sub@fig:finger_cropped_3D_1}{{a}{66}}
\newlabel{fig:finger_cropped_3D_2}{{6.3b}{66}}
\newlabel{sub@fig:finger_cropped_3D_2}{{b}{66}}
\newlabel{fig:finger_cropped_3D_3}{{6.3c}{66}}
\newlabel{sub@fig:finger_cropped_3D_3}{{c}{66}}
\newlabel{fig:finger_cropped_3D_4}{{6.3d}{66}}
\newlabel{sub@fig:finger_cropped_3D_4}{{d}{66}}
\newlabel{fig:finger_kumar}{{6.3e}{66}}
\newlabel{sub@fig:finger_kumar}{{e}{66}}
\@writefile{lof}{\contentsline {figure}{\numberline {6.3}{\ignorespaces Risultato delle quattro operazioni di rotazione e \textit  {cropping} sull'immagine di esempio, come immagine tridimensionale, in \ref  {fig:finger_cropped_3D_1}, \ref  {fig:finger_cropped_3D_2}, \ref  {fig:finger_cropped_3D_3} e \ref  {fig:finger_cropped_3D_4}. In \ref  {fig:finger_kumar} l'immagine d'esempio riportata in \cite  {Kumar_et_al_2009}\relax }}{66}}
\newlabel{fig:finger_cropped_3D}{{6.3}{66}}
\citation{Kumar_et_al_2010}
\citation{Kumar_et_al_2010}
\citation{Kumar_et_al_2010}
\newlabel{fig:palm_kumar_1}{{6.4a}{67}}
\newlabel{sub@fig:palm_kumar_1}{{a}{67}}
\newlabel{fig:palm_us_1}{{6.4b}{67}}
\newlabel{sub@fig:palm_us_1}{{b}{67}}
\newlabel{fig:palm_kumar_2}{{6.4c}{67}}
\newlabel{sub@fig:palm_kumar_2}{{c}{67}}
\newlabel{fig:palm_us_2}{{6.4d}{67}}
\newlabel{sub@fig:palm_us_2}{{d}{67}}
\@writefile{lof}{\contentsline {figure}{\numberline {6.4}{\ignorespaces Comparazione tra i valori della \textit  {depth map} di partenza e dei coefficienti di $C$, \ref  {fig:palm_kumar_1}, \ref  {fig:palm_kumar_2} relativi a \cite  {Kumar_et_al_2010}, \ref  {fig:palm_us_1}, \ref  {fig:palm_us_2} a partire dai dati acquisiti con il sensore Senz3D.\relax }}{67}}
\newlabel{fig:palm_kumar_us}{{6.4}{67}}
\citation{Kumar_et_al_2009}
\citation{Kumar_et_al_2010}
\citation{Kumar_et_al_2011}
\@writefile{toc}{\contentsline {section}{\numberline {6.2}Distanza geodesica e algoritmo \textit  {Fast Marching}}{68}}
\newlabel{sec:geodesic_distance}{{6.2}{68}}
\citation{FMM}
\newlabel{eikonal}{{6.4}{69}}
\citation{FMM}
\citation{FMM_real}
\newlabel{fig:geodesic_1}{{6.5a}{72}}
\newlabel{sub@fig:geodesic_1}{{a}{72}}
\newlabel{fig:geodesic_2}{{6.5b}{72}}
\newlabel{sub@fig:geodesic_2}{{b}{72}}
\@writefile{lof}{\contentsline {figure}{\numberline {6.5}{\ignorespaces Applicazione delle distanze geodesiche alla superficie della mano\relax }}{72}}
\newlabel{fig:geodesic_distance}{{6.5}{72}}
\newlabel{fig:geodesic_feature_1}{{6.6a}{73}}
\newlabel{sub@fig:geodesic_feature_1}{{a}{73}}
\newlabel{fig:geodesic_feature_2}{{6.6b}{73}}
\newlabel{sub@fig:geodesic_feature_2}{{b}{73}}
\@writefile{lof}{\contentsline {figure}{\numberline {6.6}{\ignorespaces Esempio dei \textit  {path} delle distanze geodesiche usate come \textit  {features}.\relax }}{73}}
\newlabel{fig:geodesic_features}{{6.6}{73}}
\citation{stat_NN}
\@writefile{toc}{\contentsline {section}{\numberline {6.3}Autenticazione basata sulla distanza geodesica: SVM e \textit  {Nearest Neighbour}}{74}}
\newlabel{sec:geodesic_svm}{{6.3}{74}}
\citation{PCA_recognition}
\citation{PCA}
\citation{PCA_recognition}
\@writefile{toc}{\contentsline {section}{\numberline {6.4}Presentazione di una \textit  {baseline} basata su PCA}{76}}
\newlabel{sec:pca_angles}{{6.4}{76}}
\@writefile{lof}{\contentsline {figure}{\numberline {6.7}{\ignorespaces Esempio di \textit  {features} estratte per la \textit  {baseline} basata su \textit  {PCA}. In blu il contorno della mano, in verde gli $N$ segmenti che la compongono\relax }}{78}}
\newlabel{fig:pca_features}{{6.7}{78}}
\@writefile{toc}{\contentsline {chapter}{\numberline {7}Risultati e Conclusioni}{81}}
\@writefile{lof}{\addvspace {10\p@ }}
\@writefile{lot}{\addvspace {10\p@ }}
\@writefile{toc}{\contentsline {section}{\numberline {7.1}Risultati del riconoscimento}{81}}
\newlabel{sec:results}{{7.1}{81}}
\@writefile{lof}{\contentsline {figure}{\numberline {7.1}{\ignorespaces Curve ROC e AUC dei classificatori presentati\relax }}{83}}
\newlabel{fig:roc_curves}{{7.1}{83}}
\@writefile{toc}{\contentsline {section}{\numberline {7.2}Conclusioni}{84}}
\@writefile{toc}{\contentsline {chapter}{\numberline {A}Calibrazione e proiezione}{87}}
\@writefile{lof}{\addvspace {10\p@ }}
\@writefile{lot}{\addvspace {10\p@ }}
\newlabel{cap:calibrazione_proiezione}{{A}{87}}
\citation{Vapnik_1995}
\@writefile{toc}{\contentsline {chapter}{\numberline {B}SVM}{91}}
\@writefile{lof}{\addvspace {10\p@ }}
\@writefile{lot}{\addvspace {10\p@ }}
\newlabel{SVM}{{B}{91}}
\@writefile{toc}{\contentsline {section}{\numberline {B.1}Kernels}{93}}
\@writefile{toc}{\contentsline {section}{\numberline {B.2}SVM per dataset sbilanciati}{94}}
\newlabel{sec:svm_unbalanced}{{B.2}{94}}
\bibdata{biblio}
\bibcite{FMM_real}{1}
\bibcite{Bulatov2004}{2}
\bibcite{Vapnik_1995}{3}
\bibcite{convexity_defects_for_fingers}{4}
\bibcite{k_curvature}{5}
\bibcite{hand_based_survey}{6}
\bibcite{PCA}{7}
\bibcite{ToF-article}{8}
\bibcite{digital_img_processing}{9}
\bibcite{ernst}{10}
\bibcite{jain_et_al_2}{11}
\bibcite{jain_et_al}{12}
\bibcite{Kumar_et_al_2009}{13}
\bibcite{Kumar_et_al_2011}{14}
\bibcite{ToF-book}{15}
\bibcite{identimat_patent}{16}
\bibcite{Kumar_k_curvature}{17}
\bibcite{FMM}{18}
\bibcite{distance_transform}{19}
\bibcite{convex_hull}{20}
\bibcite{stat_NN}{21}
\bibcite{contour_extraction}{22}
\bibcite{bilateral_filter}{23}
\bibcite{PCA_recognition}{24}
\bibcite{Wang_et_al}{25}
\bibcite{yoruk_et_al}{26}
\bibcite{Zhang_et_al}{27}
\bibcite{Kumar_et_al_2010}{28}
\bibstyle{plain}
